Appendix S1. Detailed instructions for replicating analyses and reproducing results.
…
Hatchery releases

The numbers of hatchery fish released each year is listed in a file on the project site. They have already been lagged 2 years (i.e., brood year + 2) to account for the potential competitive interactions during their juvenile life stage. (We will divide the release number by 1000 for plotting purposes.)

dat_hrel <- read_csv(paste0(ex_url,fn_hrel)) 
dat_hrel 

## # A tibble: 36 x 2
##     year   Hrel
##    <int>  <int>
##  1  1978 340416
##  2  1979 274090
##  3  1980 216537
##  4  1981 300942
##  5  1982 241931
##  6  1983 256238
##  7  1984 319220
##  8  1985 125280
##  9  1986 229013
## 10  1987 217948
## # ... with 26 more rows
…
