Appendix S1. Detailed instructions for replicating analyses and reproducing results.
…
Hatchery releases

The numbers of hatchery fish released each year is listed in a file on the project site. They have already been lagged 2 years (i.e., brood year + 2) to account for the potential competitive interactions during their juvenile life stage. (We will divide the release number by 1000 for plotting purposes.)

dat_hrel <- read_csv(paste0(ex_url,fn_hrel)) 
dat_hrel <- subset(dat_hrel, dat_hrel$year <= max(dat_STI$year))
dat_hrel[,2] <- dat_hrel[,2]/1000
dat_hrel

## # A tibble: 37 x 2
##     year    Hrel
##    <int>   <dbl>
##  1  1978 340.416
##  2  1979 274.090
##  3  1980 216.537
##  4  1981 300.942
##  5  1982 241.931
##  6  1983 256.238
##  7  1984 319.220
##  8  1985 125.280
##  9  1986 229.013
## 10  1987 217.948
## # ... with 27 more rows
…
